[
    {
        "id": 0,
        "title": "ARC Number",
        "description": "ARC proof document",
        "dtype": "Internal",
        "ftype": "pdf",
        "download": "arc.pdf",
        "version": "v1.0",
        "status": "Active"
    },
    {
        "id": 0,
        "title": "ARC Number",
        "description": "ARC proof document",
        "dtype": "Internal",
        "ftype": "pdf",
        "download": "arc.pdf",
        "version": "v1.0",
        "status": "Active"
    },
    {
        "id": 0,
        "title": "ARC Number",
        "description": "ARC proof document",
        "dtype": "Internal",
        "ftype": "pdf",
        "download": "arc.pdf",
        "version": "v1.0",
        "status": "Active"
    },
    {
        "id": 0,
        "title": "ARC Number",
        "description": "ARC proof document",
        "dtype": "Internal",
        "ftype": "pdf",
        "download": "arc.pdf",
        "version": "v1.0",
        "status": "Active"
    },
    {
        "id": 0,
        "title": "ARC Number",
        "description": "ARC proof document",
        "dtype": "Internal",
        "ftype": "pdf",
        "download": "arc.pdf",
        "version": "v1.0",
        "status": "Active"
    },
    {
        "id": 0,
        "title": "ARC Number",
        "description": "ARC proof document",
        "dtype": "Internal",
        "ftype": "pdf",
        "download": "arc.pdf",
        "version": "v1.0",
        "status": "Active"
    },
    {
        "id": 0,
        "title": "ARC Number",
        "description": "ARC proof document",
        "dtype": "Internal",
        "ftype": "pdf",
        "download": "arc.pdf",
        "version": "v1.0",
        "status": "Active"
    }
]