[
    {
        "id": 0,
        "rulename": "Flat 10% Base Fare",
        "faretype": "Public",
        "ruletype": "Markup",
        "coto": "Base Fare",
        "airline": "Air America",
        "fareclass": "Premium Economy"
    },
    {
        "id": 0,
        "rulename": "Flat 10% Base Fare",
        "faretype": "Public",
        "ruletype": "Markup",
        "coto": "Base Fare",
        "airline": "Air America",
        "fareclass": "Premium Economy"
    },
    {
        "id": 0,
        "rulename": "Flat 10% Base Fare",
        "faretype": "Public",
        "ruletype": "Markup",
        "coto": "Base Fare",
        "airline": "Air America",
        "fareclass": "Premium Economy"
    },
    {
        "id": 0,
        "rulename": "Flat 10% Base Fare",
        "faretype": "Public",
        "ruletype": "Markup",
        "coto": "Base Fare",
        "airline": "Air America",
        "fareclass": "Premium Economy"
    },
    {
        "id": 0,
        "rulename": "Flat 10% Base Fare",
        "faretype": "Public",
        "ruletype": "Markup",
        "coto": "Base Fare",
        "airline": "Air America",
        "fareclass": "Premium Economy"
    },
    {
        "id": 0,
        "rulename": "Flat 10% Base Fare",
        "faretype": "Public",
        "ruletype": "Markup",
        "coto": "Base Fare",
        "airline": "Air America",
        "fareclass": "Premium Economy"
    },
    {
        "id": 0,
        "rulename": "Flat 10% Base Fare",
        "faretype": "Public",
        "ruletype": "Markup",
        "coto": "Base Fare",
        "airline": "Air America",
        "fareclass": "Premium Economy"
    },
    {
        "id": 0,
        "rulename": "Flat 10% Base Fare",
        "faretype": "Public",
        "ruletype": "Markup",
        "coto": "Base Fare",
        "airline": "Air America",
        "fareclass": "Premium Economy"
    }
]